…
```r
precipitaion_2018 =  readxl::read_excel(path = "local_data/Trash-Wheel-Collection-Totals-8-6-19.xlsx", sheet = "2018 Precipitation", skip = 1) %>% # use "skip" to overlook note "Precipitation (in)" in row 1
  janitor::clean_names() %>% # clean up variable names
  filter(!is.na(total) & !is.na(month)) %>% # omit rows without precipitation data
  mutate(year = 2018) %>% # add a "year" variable
  mutate(month = month.name[month]) %>% # convert number to character value of month
  select(year, month, total) # let the data be more explicit

precipitation_data = bind_rows(precipitaion_2017,precipitaion_2018)
precipitation_data
```

```
## # A tibble: 24 x 3
##     year month     total
##    <dbl> <chr>     <dbl>
##  1  2017 January    2.34
##  2  2017 February   1.46
##  3  2017 March      3.57
##  4  2017 April      3.99
##  5  2017 May        5.64
##  6  2017 June       1.4 
##  7  2017 July       7.09
##  8  2017 August     4.44
##  9  2017 September  1.95
## 10  2017 October    0   
## # … with 14 more rows
```
…
